,Job Title,Company,Location,Job Highlights
0,Software Automation QA Engineer,Viu,Kowloon Bay,1: Regional Exposure   2: Expanding team   3: Excellent career path   
1,Production Assistant,ViuTV,Kowloon Bay,1: Pre- and post-production support   2: Program production coordination   3: Creative mind   
2,Product Manager / Senior Product Manager,ViuTV,Kowloon Bay,1: Develop and manage ViuTV's web and app   2: Analyze user data   3: Develop product roadmaps   
3,Senior Data Engineer,Viu,Kowloon Bay,1: Leading video streaming service in SEA   2: Expanding team   3: Regional exposure   
4,Assistant Product Manager,MakerVille,Kowloon Bay,1: Drive the execution of all product lifecycle   2: Translate product strategy into requirement   3: Analyze market data   
5,Software Automation QA Engineer | Multimedia,Ambitious People Hong Kong Limited,Kowloon Bay,1: Competitive Package   2: Leading Multimedia Company (HK and APAC)   3: 16 AL + D.B.   
6,Business Development Manager (Corporate Advertising),ViuTV,Kowloon Bay,1: Plan and implement sales strategies   2: Execution of advertising activities and projects   3: 3 years experience in Media/Advertising   
7,"Assistant Manager, Subscription and Growth",Viu,Kowloon Bay,1: Be the owner to drive growth and rentention   2: Regional exposure   3: Strategy development   
8,Studio Operator (Lighting),ViuTV,Kowloon Bay,1: Set up and operate lighting equipment   2: Work with setting design   3: Design lighting effects   
9,Marketing Manager / Assistant Marketing Manager,Re-Tens Medical Beauty Limited,Tsim Sha Tsui,"1: Aggressively expanding company with broad exposure   2: Great analytical skills   3: 5 days work, birthday leave, performance bonus   "
10,Program Officer,ViuTV,Kowloon Bay,1: Prepare program schedules   2: Perform quality checking   3: Arrange programme logistics   
11,"Senior Data Engineer (Flexible working culture, WFH)",TEKsystems,Others,1: Data Engineering   2: International Team   3: Cutting-edge Technologies   
12,Graduate Development Programme 2023 - PCCW Media,Viu,Kowloon Bay,1: 18-month programme   2: Cross BU Job Rotation   3: Professional Development Plan   
13,Graduate Development Programme 2023 - PCCW Media,ViuTV,Kowloon Bay,1: 18-month programme & Cross BU Job Rotation   2: Exposure in TV / Media / OTT   3: Professional Development Plan   
14,"UI / UX Designer, ViuTV Digital",ViuTV,Kowloon Bay,1: Develop and maintain design systems   2: Conduct user research and testing   3: Analyze users behavioral data   
15,"Full-Stack Software Engineer/ Senior Software Engineer, ViuTV Digital",ViuTV,Kowloon Bay,1: Develop and maintain our Apps and Websites   2: Develop and maintain our backend infrastructure   3: Experience in full-stack web or mobile development   
16,"English Tutor HKD$22,000-$60,000 UP",Leading Ace Education Group Limited,Kwai Tsing Area,"1: 葵青區No.1專業補習教育機構，兩屆「家庭友善僱主」及「特別嘉許」   2: 全港唯一補習教育機構代表香港與日本最大教育研究機構TOSS學術交流   3: $22,000-$60,000 UP + 入職假期達13天(按年資增加)   "
17,"Technical Director, ViuTV Digital",ViuTV,Kowloon Bay,"1: Manage a team of developers   2: Design, develop and maintain software platforms   3: Manage large scale cloud platforms (AWS)   "
18,"Mathematics Tutor HKD$22,000-$60,000 UP",Leading Ace Education Group Limited,Kwai Tsing Area,"1: 葵青區No.1專業補習教育機構，兩屆「家庭友善僱主」及「特別嘉許」   2: 全港唯一補習教育機構代表香港與日本最大教育研究機構TOSS學術交流   3: $22,000-$60,000 UP + 入職假期達13天(按年資增加)   "
19,行政主管($20-24K) / 服務大使($18-20K),Leading Ace Education Group Limited,Kwai Tsing Area,1: 葵青區No.1專業補習教育機構，兩屆「家庭友善僱主」及「特別嘉許」   2: 全港唯一補習教育機構代表香港與日本最大教育研究機構TOSS學術交流   3: 月薪$20000-$35000 + 入職假期達13天(根據年資增加)   
20,Sales Manager / Senior Sales Manager,Viu,Kowloon Bay,"1: Secure advertising revenue of Viu.com,Now.com,Moov   2: Formulate the best digital advertising solutions   3: 3 years+ relevant experience in media sales   "
21,Solution Architect,Viu,Kowloon Bay,1: Regional exposure   2: Leading OTT service in SEA   3: Excellent career path   
22,Technical Manager (Web),Viu,Kowloon Bay,1: Regional exposure   2: Leading OTT service in SEA   3: Act as a problem solver   
23,Senior DevOps Engineer,Viu,Kowloon Bay,1: 4+ years of relevant experience   2: Solid experience on Google Cloud Platform and AWS   3: Excellent career path   
24,Project Executive (12-month contract),Viu,Kowloon Bay,1: Leading video streaming service in SEA   2: Expanding team   3: Regional exposure   
25,Producer,ViuTV,Kowloon Bay,1: Producing top quality TV programmes   2: Creative mind   3: Minimum 5 years solid TV Production experience   
26,Copywriter,ViuTV,Kowloon Bay,1: Provide creative support   2: Produce top quality on-air promos   3: TV branding campaigns   
27,Research Writer,ViuTV,Kowloon Bay,"1: Provide creative ideas   2: Program research   3: Outgoing, creative and energetic   "
28,Studio Operator (Video),ViuTV,Kowloon Bay,1: Operate video server   2: Operate vision mixer   3: Setup and operate video wall control system   
29,Junior Producer / Producer (Creative Services),ViuTV,Kowloon Bay,1: Develop and produce videos   2: Work out production and post-production details   3: Experience in TV / Media   
30,Senior Business Analyst / Business Analyst,PCCW Media,Kowloon Bay,"1: Prepare monthly closing, variance analysis   2: Assist in annual budget   3: Keep track the business performance   "
31,"Assistant Manager / Business Analyst, Subscription",Viu,Kowloon Bay,1: Think big to drive subscription strategy   2: Digital-savvy & understand subscriber lifecycle   3: Regional exposure   
32,Content Development Officer,Viu,Kowloon Bay,1: Source content   2: Managing content acquisition   3: Maintain content agreements   
33,Sales Manager / Senior Sales Manager,Viu,Kowloon Bay,"1: Secure advertising revenue of Viu.com,Now.com,Moov   2: Formulate the best digital advertising solutions   3: 3 years+ relevant experience in media sales   "
34,Editor (Part Time),Viu,Kowloon Bay,1: Write attractive scripts   2: Monitor strict workflow of multimedia contents   3: Manage the Content Management System   
